<?xml version="1.0" encoding="utf-8"?>
<!-- Generator: Adobe Illustrator 16.0.0, SVG Export Plug-In . SVG Version: 6.00 Build 0)  -->
<!DOCTYPE svg PUBLIC "-//W3C//DTD SVG 1.1//EN" "http://www.w3.org/Graphics/SVG/1.1/DTD/svg11.dtd">
<svg version="1.1" id="Layer_1" xmlns="http://www.w3.org/2000/svg" xmlns:xlink="http://www.w3.org/1999/xlink" x="0px" y="0px"
	 width="17px" height="17px" viewBox="0 0 17 17" enable-background="new 0 0 17 17" xml:space="preserve">
<g>
	<defs>
		<path id="SVGID_1_" d="M2.172,2.825C-0.962,6.32-0.67,11.694,2.825,14.827c3.495,3.135,8.869,2.843,12.002-0.652
			c3.135-3.495,2.843-8.869-0.652-12.002C12.552,0.717,10.524,0,8.503,0C6.172,0,3.851,0.953,2.172,2.825"/>
	</defs>
	<clipPath id="SVGID_2_">
		<use xlink:href="#SVGID_1_"  overflow="visible"/>
	</clipPath>
	
		<linearGradient id="SVGID_3_" gradientUnits="userSpaceOnUse" x1="-277.21" y1="118.3267" x2="-276.21" y2="118.3267" gradientTransform="matrix(-12.6556 -11.3506 -11.3506 12.6556 -2150.5942 -4629.5479)">
		<stop  offset="0" style="stop-color:#DB456C"/>
		<stop  offset="0.0479" style="stop-color:#DB456C"/>
		<stop  offset="0.3153" style="stop-color:#DB4E71"/>
		<stop  offset="0.7489" style="stop-color:#DB667D"/>
		<stop  offset="1" style="stop-color:#DB7786"/>
	</linearGradient>
	<polygon clip-path="url(#SVGID_2_)" fill="url(#SVGID_3_)" points="9.525,27.369 -9.89,9.955 7.475,-9.406 26.89,8.008 	"/>
</g>
<g>
	<defs>
		<rect id="SVGID_4_" x="-277.21" y="-73.695" width="307.2" height="192"/>
	</defs>
	<clipPath id="SVGID_5_">
		<use xlink:href="#SVGID_4_"  overflow="visible"/>
	</clipPath>
	<path clip-path="url(#SVGID_5_)" fill="#3276AC" d="M17.75,77.625c0,3.521-2.854,6.375-6.375,6.375C7.854,84,5,81.146,5,77.625
		c0-3.521,2.854-6.375,6.375-6.375C14.896,71.25,17.75,74.104,17.75,77.625"/>
</g>
<g>
	<defs>
		<path id="SVGID_6_" d="M-205.655,89.174c-5.288,2.018-7.939,7.94-5.922,13.229c2.019,5.289,7.942,7.941,13.231,5.924
			c5.29-2.02,7.941-7.942,5.922-13.231c-1.559-4.087-5.449-6.599-9.578-6.599C-203.216,88.498-204.452,88.715-205.655,89.174"/>
	</defs>
	<clipPath id="SVGID_7_">
		<use xlink:href="#SVGID_6_"  overflow="visible"/>
	</clipPath>
	
		<linearGradient id="SVGID_8_" gradientUnits="userSpaceOnUse" x1="-277.21" y1="118.2739" x2="-276.21" y2="118.2739" gradientTransform="matrix(19.153 -7.3084 -7.3084 -19.153 5962.4463 342.3296)">
		<stop  offset="0" style="stop-color:#A5325E"/>
		<stop  offset="0.0417" style="stop-color:#A5325E"/>
		<stop  offset="0.296" style="stop-color:#AE3761"/>
		<stop  offset="0.7084" style="stop-color:#C6456A"/>
		<stop  offset="1" style="stop-color:#DB5171"/>
	</linearGradient>
	<polygon clip-path="url(#SVGID_7_)" fill="url(#SVGID_8_)" points="-220.871,91.274 -193.352,80.773 -183.128,107.568 
		-210.646,118.069 	"/>
</g>
<g>
	<defs>
		<rect id="SVGID_9_" x="-277.21" y="-73.695" width="307.2" height="192"/>
	</defs>
	<clipPath id="SVGID_10_">
		<use xlink:href="#SVGID_9_"  overflow="visible"/>
	</clipPath>
	<path clip-path="url(#SVGID_10_)" fill="#EF4B8E" d="M-209.422,105.813c8.688-0.5,13.094-2.453,17.609-8.078
		c0.063,0.608,0.063,0.99,0.032,1.562c-3.703,4.47-7.25,7.063-16.752,7.369c-0.155-0.166-0.792-0.728-0.889-0.837"/>
	<path clip-path="url(#SVGID_10_)" fill="#EF4B8E" d="M-212.25,98.172c9.844-0.095,13-1.453,16.75-7.345
		c0.437,0.453,0.484,0.47,0.75,0.703c-3.75,6.11-7.983,7.398-17.484,7.703c-0.021-0.166,0-0.687,0-1.078"/>
	<path clip-path="url(#SVGID_10_)" fill="#EF4B8E" d="M-211.5,102.594c9.844-0.095,14.792-2.683,18.542-8.573
		c0.375,0.625,0.479,1.021,0.604,1.312c-3.75,6.109-9.035,8.314-18.537,8.619c-0.078-0.172-0.437-0.937-0.625-1.375"/>
	<path clip-path="url(#SVGID_10_)" fill="#EF4B8E" d="M-209.917,92.208c4.104,0.089,5.729-0.542,8.146-3.708
		c0.396,0.062,0.937,0.02,0.979,0.104c-1.729,3.562-4.792,4.938-9.708,4.416C-210.312,92.735-210.157,92.562-209.917,92.208"/>
	<path clip-path="url(#SVGID_10_)" fill="#EF4B8E" d="M-206.754,107.82c7.061-0.056,11.924-2.805,14.614-6.272
		c-0.266,0.921-0.625,1.625-0.828,2c-2.683,3.534-8.453,4.968-11.891,5.046c-0.141-0.015-1.547-0.531-1.906-0.783"/>
	<path clip-path="url(#SVGID_10_)" fill="#EF4B8E" d="M-211.516,94.891c6.859,0.25,9.016,0.155,13.25-5.656
		c0.502,0.209,0.484,0.187,0.844,0.375c-4.672,6.422-5.719,6.328-14.422,6.281C-211.75,95.516-211.75,95.5-211.516,94.891"/>
</g>
<g>
	<defs>
		<path id="SVGID_11_" d="M-29.126,43.56c-1.279,5.018,1.752,10.121,6.769,11.399c5.018,1.278,10.121-1.752,11.4-6.77
			c1.278-5.017-1.752-10.121-6.77-11.399c-0.776-0.198-1.556-0.292-2.321-0.292C-24.232,36.499-28.046,39.319-29.126,43.56"/>
	</defs>
	<clipPath id="SVGID_12_">
		<use xlink:href="#SVGID_11_"  overflow="visible"/>
	</clipPath>
	
		<linearGradient id="SVGID_13_" gradientUnits="userSpaceOnUse" x1="-277.21" y1="118.2788" x2="-276.21" y2="118.2788" gradientTransform="matrix(18.7545 0 0 -18.7545 5169.5205 2264.6218)">
		<stop  offset="0" style="stop-color:#BAC3DB"/>
		<stop  offset="0.0417" style="stop-color:#BAC3DB"/>
		<stop  offset="0.2136" style="stop-color:#B4BCD2"/>
		<stop  offset="0.4933" style="stop-color:#A5ABBA"/>
		<stop  offset="0.8439" style="stop-color:#8C8E93"/>
		<stop  offset="1" style="stop-color:#7F7F7F"/>
	</linearGradient>
	<rect x="-30.405" y="36.499" clip-path="url(#SVGID_12_)" fill="url(#SVGID_13_)" width="20.727" height="19.739"/>
</g>
<g>
	<defs>
		<rect id="SVGID_14_" x="-277.21" y="-73.695" width="307.2" height="192"/>
	</defs>
	<clipPath id="SVGID_15_">
		<use xlink:href="#SVGID_14_"  overflow="visible"/>
	</clipPath>
	<path clip-path="url(#SVGID_15_)" fill="#7D828E" d="M-14.292,42.792c0,0.553-0.447,1-1,1c-0.552,0-1-0.447-1-1
		c0-0.552,0.448-1,1-1C-14.739,41.792-14.292,42.24-14.292,42.792"/>
	<path clip-path="url(#SVGID_15_)" fill="#7D828E" d="M-23.75,41.583c0,0.552-0.448,1-1,1s-1-0.448-1-1s0.448-1,1-1
		S-23.75,41.032-23.75,41.583"/>
	<path clip-path="url(#SVGID_15_)" fill="#7D828E" d="M-20.417,43.917c0,0.553-0.447,1-1,1c-0.552,0-1-0.447-1-1
		c0-0.552,0.448-1,1-1C-20.864,42.917-20.417,43.365-20.417,43.917"/>
	<path clip-path="url(#SVGID_15_)" fill="#7D828E" d="M-25.583,46.583c0,0.552-0.448,1-1,1c-0.553,0-1-0.448-1-1s0.447-1,1-1
		C-26.031,45.583-25.583,46.032-25.583,46.583"/>
	<path clip-path="url(#SVGID_15_)" fill="#7D828E" d="M-23.25,51.417c0,0.553-0.448,1-1,1s-1-0.447-1-1c0-0.552,0.448-1,1-1
		S-23.25,50.865-23.25,51.417"/>
	<path clip-path="url(#SVGID_15_)" fill="#7D828E" d="M-12.125,46.75c0,0.552-0.448,1-1,1s-1-0.448-1-1c0-0.553,0.448-1,1-1
		S-12.125,46.198-12.125,46.75"/>
	<path clip-path="url(#SVGID_15_)" fill="#7D828E" d="M-20.375,48.375c0,0.552-0.448,1-1,1s-1-0.448-1-1c0-0.553,0.448-1,1-1
		S-20.375,47.823-20.375,48.375"/>
	<path clip-path="url(#SVGID_15_)" fill="#7D828E" d="M-15.917,51.75c0,0.552-0.447,1-1,1c-0.552,0-1-0.448-1-1c0-0.553,0.448-1,1-1
		C-16.364,50.75-15.917,51.198-15.917,51.75"/>
	<path clip-path="url(#SVGID_15_)" fill="#7D828E" d="M-18.5,39.375c0,0.552-0.448,1-1,1s-1-0.448-1-1c0-0.553,0.448-1,1-1
		S-18.5,38.823-18.5,39.375"/>
	<path clip-path="url(#SVGID_15_)" fill="#7D828E" d="M-16.5,46.25c0,0.552-0.448,1-1,1s-1-0.448-1-1c0-0.553,0.448-1,1-1
		S-16.5,45.698-16.5,46.25"/>
</g>
<g>
	<defs>
		<path id="SVGID_16_" d="M-260.96-14.94c-1.279,5.018,1.753,10.121,6.77,11.399c5.018,1.279,10.121-1.752,11.4-6.769
			c1.279-5.017-1.753-10.121-6.77-11.4c-0.777-0.198-1.555-0.292-2.322-0.292C-256.066-22.002-259.879-19.181-260.96-14.94"/>
	</defs>
	<clipPath id="SVGID_17_">
		<use xlink:href="#SVGID_16_"  overflow="visible"/>
	</clipPath>
	
		<linearGradient id="SVGID_18_" gradientUnits="userSpaceOnUse" x1="-277.21" y1="118.2798" x2="-276.21" y2="118.2798" gradientTransform="matrix(18.1693 4.6301 4.6301 -18.1693 4227.9932 3418.1016)">
		<stop  offset="0" style="stop-color:#B57C21"/>
		<stop  offset="0.0417" style="stop-color:#B57C21"/>
		<stop  offset="0.3588" style="stop-color:#B98527"/>
		<stop  offset="0.8732" style="stop-color:#C59D38"/>
		<stop  offset="1" style="stop-color:#C8A43D"/>
	</linearGradient>
	<polygon clip-path="url(#SVGID_17_)" fill="url(#SVGID_18_)" points="-260.975,-26.962 -236.787,-20.798 -242.775,2.698 
		-266.962,-3.465 	"/>
</g>
<g>
	<defs>
		<rect id="SVGID_19_" x="-277.21" y="-73.695" width="307.2" height="192"/>
	</defs>
	<clipPath id="SVGID_20_">
		<use xlink:href="#SVGID_19_"  overflow="visible"/>
	</clipPath>
	<path clip-path="url(#SVGID_20_)" fill="#F4B527" d="M-246.083-17.75c0,0.552-0.448,1-1,1c-0.552,0-1-0.448-1-1
		c0-0.552,0.448-1,1-1C-246.531-18.75-246.083-18.302-246.083-17.75"/>
	<path clip-path="url(#SVGID_20_)" fill="#F4B527" d="M-255.417-17.583c0,0.552-0.448,1-1,1c-0.552,0-1-0.448-1-1
		c0-0.552,0.448-1,1-1C-255.865-18.583-255.417-18.135-255.417-17.583"/>
	<path clip-path="url(#SVGID_20_)" fill="#F4B527" d="M-252.083-15.25c0,0.552-0.448,1-1,1c-0.552,0-1-0.448-1-1
		c0-0.552,0.448-1,1-1C-252.531-16.25-252.083-15.802-252.083-15.25"/>
	<path clip-path="url(#SVGID_20_)" fill="#F4B527" d="M-257.25-12.583c0,0.552-0.448,1-1,1c-0.552,0-1-0.448-1-1
		c0-0.552,0.448-1,1-1C-257.698-13.583-257.25-13.135-257.25-12.583"/>
	<path clip-path="url(#SVGID_20_)" fill="#F4B527" d="M-254.917-7.75c0,0.552-0.448,1-1,1c-0.552,0-1-0.448-1-1c0-0.552,0.448-1,1-1
		C-255.365-8.75-254.917-8.302-254.917-7.75"/>
	<path clip-path="url(#SVGID_20_)" fill="#F4B527" d="M-244.417-13.25c0,0.552-0.448,1-1,1c-0.552,0-1-0.448-1-1
		c0-0.552,0.448-1,1-1C-244.865-14.25-244.417-13.802-244.417-13.25"/>
	<path clip-path="url(#SVGID_20_)" fill="#F4B527" d="M-252.417-11.417c0,0.552-0.448,1-1,1c-0.552,0-1-0.448-1-1s0.448-1,1-1
		C-252.865-12.417-252.417-11.968-252.417-11.417"/>
	<path clip-path="url(#SVGID_20_)" fill="#F4B527" d="M-247.917-9.083c0,0.552-0.448,1-1,1c-0.552,0-1-0.448-1-1
		c0-0.552,0.448-1,1-1C-248.365-10.083-247.917-9.635-247.917-9.083"/>
	<path clip-path="url(#SVGID_20_)" fill="#F4B527" d="M-250.583-19.083c0,0.552-0.448,1-1,1c-0.552,0-1-0.448-1-1
		c0-0.552,0.448-1,1-1C-251.031-20.083-250.583-19.635-250.583-19.083"/>
	<path clip-path="url(#SVGID_20_)" fill="#F4B527" d="M-248.583-12.75c0,0.552-0.448,1-1,1c-0.552,0-1-0.448-1-1
		c0-0.552,0.448-1,1-1C-249.031-13.75-248.583-13.302-248.583-12.75"/>
	<path clip-path="url(#SVGID_20_)" fill="#F4B527" d="M-250.625-6.375c0,0.552-0.448,1-1,1c-0.552,0-1-0.448-1-1
		c0-0.552,0.448-1,1-1C-251.073-7.375-250.625-6.927-250.625-6.375"/>
	<path clip-path="url(#SVGID_20_)" fill="#F4B527" d="M-244.125-9.625c0,0.552-0.448,1-1,1c-0.552,0-1-0.448-1-1
		c0-0.552,0.448-1,1-1C-244.573-10.625-244.125-10.177-244.125-9.625"/>
	
		<ellipse transform="matrix(0.989 -0.1476 0.1476 0.989 7.3709 -2.4397)" clip-path="url(#SVGID_20_)" fill="none" stroke="#EFA500" stroke-width="2" stroke-miterlimit="10" cx="-12.75" cy="-50.875" rx="21.75" ry="6.626"/>
</g>
<g>
	<defs>
		<path id="SVGID_21_" d="M-20.642-61.259c-6.22,4.359-7.727,12.934-3.367,19.152c4.358,6.218,12.933,7.725,19.151,3.366
			s7.726-12.933,3.366-19.151c-2.676-3.817-6.938-5.859-11.271-5.859C-15.488-63.751-18.241-62.943-20.642-61.259"/>
	</defs>
	<clipPath id="SVGID_22_">
		<use xlink:href="#SVGID_21_"  overflow="visible"/>
	</clipPath>
	
		<linearGradient id="SVGID_23_" gradientUnits="userSpaceOnUse" x1="-277.21" y1="118.3325" x2="-276.21" y2="118.3325" gradientTransform="matrix(-22.5182 15.7855 15.7855 22.5182 -8111.2603 1653.9932)">
		<stop  offset="0" style="stop-color:#2A98A0"/>
		<stop  offset="0.0417" style="stop-color:#2A98A0"/>
		<stop  offset="0.2771" style="stop-color:#2FA1A7"/>
		<stop  offset="0.6587" style="stop-color:#3BB9B9"/>
		<stop  offset="1" style="stop-color:#49D4CE"/>
	</linearGradient>
	<polygon clip-path="url(#SVGID_22_)" fill="url(#SVGID_23_)" points="16.672,-44.059 -18.076,-19.7 -42.172,-54.074 
		-7.424,-78.433 	"/>
</g>
<g>
	<defs>
		<rect id="SVGID_24_" x="-277.21" y="-73.695" width="307.2" height="192"/>
	</defs>
	<clipPath id="SVGID_25_">
		<use xlink:href="#SVGID_24_"  overflow="visible"/>
	</clipPath>
	<path clip-path="url(#SVGID_25_)" fill="none" stroke="#EFA500" stroke-width="2" stroke-miterlimit="10" d="M4.188-49.062
		c-3.732,1.981-9.127,3.896-15.521,4.85c-6.179,0.922-11.87,0.935-15.989,0.208"/>
</g>
</svg>
